module UberMachDeutscheMachinerienForAdvancedOptimization

go 1.20

require (
	github.com/gorilla/mux v1.8.1
	github.com/rs/zerolog v1.31.0
)

require (
	github.com/mattn/go-colorable v0.1.13 // indirect
	github.com/mattn/go-isatty v0.0.19 // indirect
	golang.org/x/sys v0.12.0 // indirect
)
